{
  "pagination": {
    "page": 1161,
    "perPage": 20,
    "totalItems": 23238,
    "lastPage": 1162,
    "hasNextPage": true
  },
  "data": [
    {
      "newsID": 85124,
      "domainID": 101,
      "platform": "gp",
      "newsTitle": "Sainz maakt probleemloos de overstap: 'Die anderen zijn echt nergens'",
      "newsTitleSlug": "sainz-maakt-probleemloos-de-overstap-die-anderen-zijn-echt-nergens.html",
      "host": "https://www.gpblog.com",
      "path": "/nl/nieuws/85124/sainz-maakt-probleemloos-de-overstap-die-anderen-zijn-echt-nergens.html",
      "newsDate": "2021-05-26T06:54:52.000Z",
      "userID": 270,
      "userName": "Tim",
      "commentCount": 11,
      "category": {
        "newsCatID": 103,
        "newsCatName": "F1 Nieuws",
        "newsCatNameSlug": "f1-nieuws",
        "newsCatMedia": false
      },
      "imageUrl": "https://gp.cdn.pxr.nl/news/2021/05/26/{size}_ad40c6cb4c0a749df302725e330ea969d9076fde.jpg"
    },
    {
      "newsID": 85122,
      "domainID": 101,
      "platform": "gp",
      "newsTitle": "Verstappen wint woordenwisseling met Hamilton: 'Dat is een teken van zwakte'",
      "newsTitleSlug": "verstappen-wint-woordenwisseling-met-hamilton-dat-is-een-teken-van-zwakte.html",
      "host": "https://www.gpblog.com",
      "path": "/nl/nieuws/85122/verstappen-wint-woordenwisseling-met-hamilton-dat-is-een-teken-van-zwakte.html",
      "newsDate": "2021-05-26T06:33:41.000Z",
      "userID": 270,
      "userName": "Tim",
      "commentCount": 44,
      "category": {
        "newsCatID": 103,
        "newsCatName": "F1 Nieuws",
        "newsCatNameSlug": "f1-nieuws",
        "newsCatMedia": false
      },
      "imageUrl": "https://gp.cdn.pxr.nl/news/2021/05/26/{size}_57d7e9d39654f7356fc8fba66307129672118bb5.jpg"
    },
    {
      "newsID": 85120,
      "domainID": 101,
      "platform": "gp",
      "newsTitle": "Red Bull gaf goede voorbeeld aan Mercedes: 'Hamilton kon zo maar één plek winnen'",
      "newsTitleSlug": "red-bull-gaf-goede-voorbeeld-aan-mercedes-hamilton-kon-zo-maar-n-plek-winnen.html",
      "host": "https://www.gpblog.com",
      "path": "/nl/nieuws/85120/red-bull-gaf-goede-voorbeeld-aan-mercedes-hamilton-kon-zo-maar-n-plek-winnen.html",
      "newsDate": "2021-05-26T05:54:08.000Z",
      "userID": 270,
      "userName": "Tim",
      "commentCount": 6,
      "category": {
        "newsCatID": 103,
        "newsCatName": "F1 Nieuws",
        "newsCatNameSlug": "f1-nieuws",
        "newsCatMedia": false
      },
      "imageUrl": "https://gp.cdn.pxr.nl/news/2021/05/26/{size}_cbb8d9aeb56d83055e802a045f464da546dd8c29.jpg"
    },
    {
      "newsID": 85118,
      "domainID": 101,
      "platform": "gp",
      "newsTitle": "Leclerc krijgt dezelfde vraag als Verstappen: 'Ik ga dat niet veranderen'",
      "newsTitleSlug": "leclerc-krijgt-dezelfde-vraag-als-verstappen-ik-ga-dat-niet-veranderen.html",
      "host": "https://www.gpblog.com",
      "path": "/nl/nieuws/85118/leclerc-krijgt-dezelfde-vraag-als-verstappen-ik-ga-dat-niet-veranderen.html",
      "newsDate": "2021-05-26T05:31:44.000Z",
      "userID": 270,
      "userName": "Tim",
      "commentCount": 20,
      "category": {
        "newsCatID": 103,
        "newsCatName": "F1 Nieuws",
        "newsCatNameSlug": "f1-nieuws",
        "newsCatMedia": false
      },
      "imageUrl": "https://gp.cdn.pxr.nl/news/2021/05/26/{size}_b93756b98b5f28a37abc57524222e0edbe59d89a.jpg"
    },
    {
      "newsID": 85116,
      "domainID": 101,
      "platform": "gp",
      "newsTitle": "Opnieuw nagenoeg perfecte score voor Verstappen: ‘Hij had overal een antwoord op’",
      "newsTitleSlug": "opnieuw-nagenoeg-perfecte-score-voor-verstappen-hij-had-overal-een-antwoord-op.html",
      "host": "https://www.gpblog.com",
      "path": "/nl/nieuws/85116/opnieuw-nagenoeg-perfecte-score-voor-verstappen-hij-had-overal-een-antwoord-op.html",
      "newsDate": "2021-05-25T19:40:11.000Z",
      "userID": 17328,
      "commentCount": 7,
      "category": {
        "newsCatID": 103,
        "newsCatName": "F1 Nieuws",
        "newsCatNameSlug": "f1-nieuws",
        "newsCatMedia": false
      },
      "imageUrl": "https://gp.cdn.pxr.nl/news/2021/05/25/{size}_2332a3c9c6a04ca969ed379086b56d949c8839ad.jpg"
    },
    {
      "newsID": 85114,
      "domainID": 101,
      "platform": "gp",
      "newsTitle": "Dramatische pitstop niet de schuld van Bottas? 'Wat Wolff zegt is onzin'",
      "newsTitleSlug": "geeft-wolff-bottas-onterecht-de-schuld-van-gefaalde-pitstop-dat-is-onzin.html",
      "host": "https://www.gpblog.com",
      "path": "/nl/nieuws/85114/geeft-wolff-bottas-onterecht-de-schuld-van-gefaalde-pitstop-dat-is-onzin.html",
      "newsDate": "2021-05-25T19:12:40.000Z",
      "userID": 17328,
      "commentCount": 58,
      "category": {
        "newsCatID": 103,
        "newsCatName": "F1 Nieuws",
        "newsCatNameSlug": "f1-nieuws",
        "newsCatMedia": false
      },
      "imageUrl": "https://gp.cdn.pxr.nl/news/2021/05/25/{size}_fbcdd48e2ae20f80920672de3eef59dac1064bdf.jpg"
    },
    {
      "newsID": 85112,
      "domainID": 101,
      "platform": "gp",
      "newsTitle": "Kenners zien ‘het oude Red Bull’ terugkeren: ‘Is zeker angst bij Mercedes nu’",
      "newsTitleSlug": "kenners-zien-het-oude-red-bull-terugkeren-is-zeker-angst-bij-mercedes-nu.html",
      "host": "https://www.gpblog.com",
      "path": "/nl/nieuws/85112/kenners-zien-het-oude-red-bull-terugkeren-is-zeker-angst-bij-mercedes-nu.html",
      "newsDate": "2021-05-25T18:42:39.000Z",
      "userID": 17328,
      "commentCount": 14,
      "category": {
        "newsCatID": 103,
        "newsCatName": "F1 Nieuws",
        "newsCatNameSlug": "f1-nieuws",
        "newsCatMedia": false
      },
      "imageUrl": "https://gp.cdn.pxr.nl/news/2021/05/25/{size}_5434aed5a4239fc1cc6be2b907572f43f1053db3.jpg"
    },
    {
      "newsID": 85110,
      "domainID": 101,
      "platform": "gp",
      "newsTitle": "Leclerc na dramaweekend: ‘Hoop dat Monaco ook ooit van mij houdt’",
      "newsTitleSlug": "leclerc-na-dramaweekend-hoop-dat-monaco-ook-ooit-van-mij-houdt.html",
      "host": "https://www.gpblog.com",
      "path": "/nl/nieuws/85110/leclerc-na-dramaweekend-hoop-dat-monaco-ook-ooit-van-mij-houdt.html",
      "newsDate": "2021-05-25T18:15:01.000Z",
      "userID": 17328,
      "commentCount": 12,
      "category": {
        "newsCatID": 103,
        "newsCatName": "F1 Nieuws",
        "newsCatNameSlug": "f1-nieuws",
        "newsCatMedia": false
      },
      "imageUrl": "https://gp.cdn.pxr.nl/news/2021/05/25/{size}_f18aa06df75d67bc4cd8fd6b5caced0928ad9a58.jpg"
    },
    {
      "newsID": 85108,
      "domainID": 101,
      "platform": "gp",
      "newsTitle": "Palmer ziet zwakke plek van Mercedes: 'Hier laat Red Bull zien hoe het moet'",
      "newsTitleSlug": "palmer-ziet-zwakke-plek-van-mercedes-hier-laat-red-bull-zien-hoe-het-moet.html",
      "host": "https://www.gpblog.com",
      "path": "/nl/nieuws/85108/palmer-ziet-zwakke-plek-van-mercedes-hier-laat-red-bull-zien-hoe-het-moet.html",
      "newsDate": "2021-05-25T17:47:03.000Z",
      "userID": 17328,
      "commentCount": 11,
      "category": {
        "newsCatID": 103,
        "newsCatName": "F1 Nieuws",
        "newsCatNameSlug": "f1-nieuws",
        "newsCatMedia": false
      },
      "imageUrl": "https://gp.cdn.pxr.nl/news/2021/05/25/{size}_493d94bfcf7ee6a8df570fc21b74c59852677245.jpg"
    },
    {
      "newsID": 85104,
      "domainID": 101,
      "platform": "gp",
      "newsTitle": "Leclerc rijdt totaal van 141 rondes om 18-inch Pirelli banden te testen",
      "newsTitleSlug": "leclerc-rijdt-totaal-van-141-rondes-om-18-inch-pirelli-banden-te-testen.html",
      "host": "https://www.gpblog.com",
      "path": "/nl/nieuws/85104/leclerc-rijdt-totaal-van-141-rondes-om-18-inch-pirelli-banden-te-testen.html",
      "newsDate": "2021-05-25T17:15:00.000Z",
      "userID": 17328,
      "commentCount": 6,
      "category": {
        "newsCatID": 129,
        "newsCatName": "Algemeen",
        "newsCatNameSlug": "algemeen",
        "newsCatMedia": false
      },
      "imageUrl": "https://gp.cdn.pxr.nl/news/2021/05/25/{size}_8f8fce4cebeb6381545082868f346dfcc0ca7ae3.jpg"
    },
    {
      "newsID": 85102,
      "domainID": 101,
      "platform": "gp",
      "newsTitle": "Mercedes maakte deze technische aanpassing in Monaco, maar kocht er niks voor",
      "newsTitleSlug": "mercedes-maakte-deze-technische-aanpassing-in-monaco-maar-kocht-er-niks-voor.html",
      "host": "https://www.gpblog.com",
      "path": "/nl/nieuws/85102/mercedes-maakte-deze-technische-aanpassing-in-monaco-maar-kocht-er-niks-voor.html",
      "newsDate": "2021-05-25T16:45:10.000Z",
      "userID": 17328,
      "commentCount": 26,
      "category": {
        "newsCatID": 103,
        "newsCatName": "F1 Nieuws",
        "newsCatNameSlug": "f1-nieuws",
        "newsCatMedia": false
      },
      "imageUrl": "https://gp.cdn.pxr.nl/news/2021/05/25/{size}_9ea81e8ff9bd45c25e8198d3a9dc1b062569f932.jpg"
    },
    {
      "newsID": 85099,
      "domainID": 101,
      "platform": "gp",
      "newsTitle": "Wolff zoekt verklaring voor ongeluk Mercedes: ‘Bottas lijkt wel vervloekt’",
      "newsTitleSlug": "wolff-zoekt-verklaring-voor-ongeluk-mercedes-misschien-is-bottas-wel-vervloekt.html",
      "host": "https://www.gpblog.com",
      "path": "/nl/nieuws/85099/wolff-zoekt-verklaring-voor-ongeluk-mercedes-misschien-is-bottas-wel-vervloekt.html",
      "newsDate": "2021-05-25T16:15:31.000Z",
      "userID": 17328,
      "commentCount": 42,
      "category": {
        "newsCatID": 103,
        "newsCatName": "F1 Nieuws",
        "newsCatNameSlug": "f1-nieuws",
        "newsCatMedia": false
      },
      "imageUrl": "https://gp.cdn.pxr.nl/news/2021/05/25/{size}_acf34892bc718350046183bd2840b4a2b8a56807.jpg"
    },
    {
      "newsID": 85098,
      "domainID": 101,
      "platform": "gp",
      "newsTitle": "Waardoor had Mercedes zo'n slecht weekend? 'Dat hebben Red Bull en Ferrari wel'",
      "newsTitleSlug": "waardoor-had-mercedes-zon-slecht-weekend-dat-hebben-red-bull-en-ferrari-wel.html",
      "host": "https://www.gpblog.com",
      "path": "/nl/nieuws/85098/waardoor-had-mercedes-zon-slecht-weekend-dat-hebben-red-bull-en-ferrari-wel.html",
      "newsDate": "2021-05-25T16:01:00.000Z",
      "userID": 14071,
      "userName": "BramHuisers",
      "commentCount": 17,
      "category": {
        "newsCatID": 103,
        "newsCatName": "F1 Nieuws",
        "newsCatNameSlug": "f1-nieuws",
        "newsCatMedia": false
      },
      "imageUrl": "https://gp.cdn.pxr.nl/news/2021/05/25/{size}_2eedf56ef339c6ea3b51bb0c52a428b3f7ef818d.jpg"
    },
    {
      "newsID": 85096,
      "domainID": 101,
      "platform": "gp",
      "newsTitle": "Marko wijst naar flexibele vleugel van Mercedes: 'Een protest is mogelijk'",
      "newsTitleSlug": "marko-vergelijkt-flexibele-achtervleugel-met-das-waarom-werd-dat-toegestaan.html",
      "host": "https://www.gpblog.com",
      "path": "/nl/nieuws/85096/marko-vergelijkt-flexibele-achtervleugel-met-das-waarom-werd-dat-toegestaan.html",
      "newsDate": "2021-05-25T15:24:00.000Z",
      "userID": 14071,
      "userName": "BramHuisers",
      "commentCount": 60,
      "category": {
        "newsCatID": 103,
        "newsCatName": "F1 Nieuws",
        "newsCatNameSlug": "f1-nieuws",
        "newsCatMedia": false
      },
      "imageUrl": "https://gp.cdn.pxr.nl/news/2021/05/25/{size}_7dfeedf503407c936da4c4645849c13d3c8db2c8.jpg"
    },
    {
      "newsID": 85092,
      "domainID": 101,
      "platform": "gp",
      "newsTitle": "Hill neemt Hamilton in bescherming: 'Niet overtuigd dat hij echt van Monaco houdt'",
      "newsTitleSlug": "hill-neemt-hamilton-in-bescherming-niet-overtuigd-dat-hij-echt-van-monaco-houdt.html",
      "host": "https://www.gpblog.com",
      "path": "/nl/nieuws/85092/hill-neemt-hamilton-in-bescherming-niet-overtuigd-dat-hij-echt-van-monaco-houdt.html",
      "newsDate": "2021-05-25T14:44:00.000Z",
      "userID": 14071,
      "userName": "BramHuisers",
      "commentCount": 32,
      "category": {
        "newsCatID": 103,
        "newsCatName": "F1 Nieuws",
        "newsCatNameSlug": "f1-nieuws",
        "newsCatMedia": false
      },
      "imageUrl": "https://gp.cdn.pxr.nl/news/2021/05/25/{size}_ddd7ee1580203d054064a3d8bd6af4c9fdea261d.jpg"
    },
    {
      "newsID": 85090,
      "domainID": 101,
      "platform": "gp",
      "newsTitle": "FIA gaat onderzoek doen naar IndyCar-regel in kwalificatie voor F1",
      "newsTitleSlug": "fia-gaat-onderzoek-doen-naar-indycar-regel-in-kwalificatie-voor-f1.html",
      "host": "https://www.gpblog.com",
      "path": "/nl/nieuws/85090/fia-gaat-onderzoek-doen-naar-indycar-regel-in-kwalificatie-voor-f1.html",
      "newsDate": "2021-05-25T14:25:00.000Z",
      "userID": 14071,
      "userName": "BramHuisers",
      "commentCount": 28,
      "category": {
        "newsCatID": 103,
        "newsCatName": "F1 Nieuws",
        "newsCatNameSlug": "f1-nieuws",
        "newsCatMedia": false
      },
      "imageUrl": "https://gp.cdn.pxr.nl/news/2021/05/25/{size}_3a5b5c52123061d661bb837ff1e9d2e2bef65be3.jpg"
    },
    {
      "newsID": 85088,
      "domainID": 101,
      "platform": "gp",
      "newsTitle": "Hakkinen: 'Het leek alsof Red Bull na Bahrein hun voordeel weg gaf aan Mercedes'",
      "newsTitleSlug": "hakkinen-het-leek-alsof-red-bull-na-bahrein-hun-voordeel-weg-gaf-aan-mercedes.html",
      "host": "https://www.gpblog.com",
      "path": "/nl/nieuws/85088/hakkinen-het-leek-alsof-red-bull-na-bahrein-hun-voordeel-weg-gaf-aan-mercedes.html",
      "newsDate": "2021-05-25T13:50:00.000Z",
      "userID": 14071,
      "userName": "BramHuisers",
      "commentCount": 6,
      "category": {
        "newsCatID": 103,
        "newsCatName": "F1 Nieuws",
        "newsCatNameSlug": "f1-nieuws",
        "newsCatMedia": false
      },
      "imageUrl": "https://gp.cdn.pxr.nl/news/2021/05/25/{size}_f5fee78e4c52deeb7f65b53ae6ef87b00515d1e2.jpg"
    },
    {
      "newsID": 85086,
      "domainID": 101,
      "platform": "gp",
      "newsTitle": "Palmer ziet Mercedes ongebruikelijke fouten maken: \"Dat heeft grote gevolgen\"",
      "newsTitleSlug": "palmer-ziet-mercedes-ongebruikelijke-fouten-maken-dat-heeft-grote-gevolgen.html",
      "host": "https://www.gpblog.com",
      "path": "/nl/nieuws/85086/palmer-ziet-mercedes-ongebruikelijke-fouten-maken-dat-heeft-grote-gevolgen.html",
      "newsDate": "2021-05-25T13:27:00.000Z",
      "userID": 14071,
      "userName": "BramHuisers",
      "commentCount": 9,
      "category": {
        "newsCatID": 103,
        "newsCatName": "F1 Nieuws",
        "newsCatNameSlug": "f1-nieuws",
        "newsCatMedia": false
      },
      "imageUrl": "https://gp.cdn.pxr.nl/news/2021/05/25/{size}_149d1bf9964655bd9b6b9c25b5317df687515dd5.jpg"
    },
    {
      "newsID": 85084,
      "domainID": 101,
      "platform": "gp",
      "newsTitle": "Oostenrijk verbiedt per 1 juni alle vluchten vanuit het Verenigd Koninkrijk",
      "newsTitleSlug": "oostenrijk-verbiedt-per-1-juni-alle-vluchten-vanuit-het-verenigd-koninkrijk.html",
      "host": "https://www.gpblog.com",
      "path": "/nl/nieuws/85084/oostenrijk-verbiedt-per-1-juni-alle-vluchten-vanuit-het-verenigd-koninkrijk.html",
      "newsDate": "2021-05-25T12:49:48.000Z",
      "userID": 17132,
      "userName": "nicolem",
      "commentCount": 19,
      "category": {
        "newsCatID": 103,
        "newsCatName": "F1 Nieuws",
        "newsCatNameSlug": "f1-nieuws",
        "newsCatMedia": false
      },
      "imageUrl": "https://gp.cdn.pxr.nl/news/2021/05/25/{size}_8d9c78d833c9ffbd6739e8dab653c096100c8a1e.jpg"
    },
    {
      "newsID": 85080,
      "domainID": 101,
      "platform": "gp",
      "newsTitle": "Villeneuve oordeelt hard: \"Ik kan geen medelijden met hem hebben\"",
      "newsTitleSlug": "villeneuve-oordeelt-hard-ik-kan-geen-medelijden-met-hem-hebben.html",
      "host": "https://www.gpblog.com",
      "path": "/nl/nieuws/85080/villeneuve-oordeelt-hard-ik-kan-geen-medelijden-met-hem-hebben.html",
      "newsDate": "2021-05-25T12:25:13.000Z",
      "userID": 17132,
      "userName": "nicolem",
      "commentCount": 21,
      "category": {
        "newsCatID": 103,
        "newsCatName": "F1 Nieuws",
        "newsCatNameSlug": "f1-nieuws",
        "newsCatMedia": false
      },
      "imageUrl": "https://gp.cdn.pxr.nl/news/2021/05/25/{size}_31ba37b0718bdd960051bb55dc30c5c7c857c7da.jpg"
    }
  ]
}